Using the ggmcmc package
…
ggs() produces a data frame object with four variables, namely:

Iteration Number of iteration.

Chain Number of the chain.

Parameter Name of the parameter.

value value sampled.

More specifically, ggs() produces a data frame tbl, which is a wrapper in dplyr that improves printing data frames. In this case, calling the object produces a compact view of its contents.

S

## # A tibble: 16,000 x 4
##    Iteration Chain Parameter value
##        <int> <int> <fct>     <dbl>
##  1         1     1 alpha[1]  1.97 
##  2         2     1 alpha[1]  1.06 
##  3         3     1 alpha[1]  1.17 
##  4         4     1 alpha[1]  1.26 
##  5         5     1 alpha[1]  1.04 
##  6         6     1 alpha[1]  1.71 
##  7         7     1 alpha[1]  1.09 
##  8         8     1 alpha[1]  0.804
##  9         9     1 alpha[1]  0.823
## 10        10     1 alpha[1]  1.13 
## # … with 15,990 more rows
…
